…
```r
power_frequency <- superhero_powers %>% 
  select(-hero_names) %>%
  summarise_all(~(sum(.))) %>%
  pivot_longer(everything(), names_to = "power", values_to = "freq")
power_frequency
```

```
## # A tibble: 167 x 2
##    power                  freq
##    <chr>                 <int>
##  1 Agility                 242
##  2 Accelerated Healing     178
##  3 Lantern Power Ring       11
##  4 Dimensional Awareness    25
##  5 Cold Resistance          47
##  6 Durability              257
##  7 Stealth                 126
##  8 Energy Absorption        77
##  9 Flight                  212
## 10 Danger Sense             30
## # ... with 157 more rows
```
…
```r
power_quantity <- superhero_powers %>% 
  pivot_longer(-hero_names, names_to = "power", values_to = "yes_or_no") %>% 
  group_by(hero_names) %>% 
  mutate(sum_powers = sum(yes_or_no, na.rm=T)) %>%
  arrange(desc(sum_powers), hero_names, desc(yes_or_no))
power_quantity
```

```
## # A tibble: 111,389 x 4
## # Groups:   hero_names [667]
##    hero_names power                 yes_or_no sum_powers
##    <chr>      <chr>                 <lgl>          <int>
##  1 Spectre    Agility               TRUE              49
##  2 Spectre    Accelerated Healing   TRUE              49
##  3 Spectre    Dimensional Awareness TRUE              49
##  4 Spectre    Stealth               TRUE              49
##  5 Spectre    Energy Absorption     TRUE              49
##  6 Spectre    Flight                TRUE              49
##  7 Spectre    Marksmanship          TRUE              49
##  8 Spectre    Longevity             TRUE              49
##  9 Spectre    Intelligence          TRUE              49
## 10 Spectre    Super Strength        TRUE              49
## # ... with 111,379 more rows
```

```r
#we have to trim down to only the top 50, or it will crowd the image!
power_quantity <- power_quantity %>% 
  ungroup %>%
  distinct(hero_names, sum_powers) %>%
  slice_max(sum_powers, n = 50)
power_quantity
```

```
## # A tibble: 51 x 2
##    hero_names        sum_powers
##    <chr>                  <int>
##  1 Spectre                   49
##  2 Amazo                     44
##  3 Living Tribunal           35
##  4 Martian Manhunter         35
##  5 Man of Miracles           34
##  6 Captain Marvel            33
##  7 T-X                       33
##  8 Galactus                  32
##  9 T-1000                    32
## 10 Mister Mxyzptlk           31
## # ... with 41 more rows
```
…
