…
```r
continent_life_exp <- gapminder %>% 
  group_by(continent, year) %>% 
  summarize(min = min(lifeExp),
            mean = mean(lifeExp),
            max = max(lifeExp),
            .groups = "keep")

continent_life_exp %>% 
  arrange(year)
```

```
## # A tibble: 60 x 5
## # Groups:   continent, year [60]
##    continent  year   min  mean   max
##    <fct>     <int> <dbl> <dbl> <dbl>
##  1 Africa     1952  30    39.1  52.7
##  2 Americas   1952  37.6  53.3  68.8
##  3 Asia       1952  28.8  46.3  65.4
##  4 Europe     1952  43.6  64.4  72.7
##  5 Oceania    1952  69.1  69.3  69.4
##  6 Africa     1957  31.6  41.3  58.1
##  7 Americas   1957  40.7  56.0  70.0
##  8 Asia       1957  30.3  49.3  67.8
##  9 Europe     1957  48.1  66.7  73.5
## 10 Oceania    1957  70.3  70.3  70.3
## # ... with 50 more rows
```
…
pop_growth <- pop_growth %>% 
  select(country, pop_growth)

pop_growth
```

```
## # A tibble: 142 x 2
## # Groups:   country [142]
##    country       pop_growth
##    <fct>              <int>
##  1 China          762419569
##  2 India          738396331
##  3 United States  143586947
##  4 Indonesia      141495000
##  5 Brazil         133408087
##  6 Pakistan       127924057
##  7 Bangladesh     103561480
##  8 Nigeria        101912068
##  9 Mexico          78556574
## 10 Philippines     68638596
## # ... with 132 more rows
```
…
