…
The data contains 26 genera, 40 species, and 34786 observations. 

```r
# genera
genera <- deserts %>% 
  group_by(genus) %>% 
  count() %>% 
  arrange(desc(n))

genera
```

```
## # A tibble: 26 x 2
## # Groups:   genus [26]
##    genus                n
##    <chr>            <int>
##  1 Dipodomys        16167
##  2 Chaetodipus       6029
##  3 Onychomys         3267
##  4 Reithrodontomys   2694
##  5 Peromyscus        2234
##  6 Perognathus       1629
##  7 Neotoma           1252
##  8 Ammospermophilus   437
##  9 Amphispiza         303
## 10 Spermophilus       249
## # ... with 16 more rows
```
…
Merriami is the most frequently sampled species and clarki, scutalatus, tereticaudus, tigris, uniparens, and viridis are the least frequently sampled species. 

```r
# species
species <- deserts %>% 
  group_by(species) %>% 
  count() %>% 
  arrange(desc(n))

species
```

```
## # A tibble: 40 x 2
## # Groups:   species [40]
##    species          n
##    <chr>        <int>
##  1 merriami     10596
##  2 penicillatus  3123
##  3 ordii         3027
##  4 baileyi       2891
##  5 megalotis     2609
##  6 spectabilis   2504
##  7 torridus      2249
##  8 flavus        1597
##  9 eremicus      1299
## 10 albigula      1252
## # ... with 30 more rows
```
…
```r
weights <- deserts %>% 
  group_by(species) %>% 
  filter(!is.na(weight))

weights %>% 
  summarize(min = min(weight),
            median = median(weight),
            max = max(weight),
            iqr = IQR(weight)) %>% 
  arrange(desc(median))
```

```
## # A tibble: 22 x 5
##    species        min median   max   iqr
##    <chr>        <dbl>  <dbl> <dbl> <dbl>
##  1 albigula        30  164     280  58  
##  2 spectabilis     12  124     190  27  
##  3 spilosoma       57   93.5   130  36.5
##  4 hispidus        16   64.5   140  42.2
##  5 fulviventer     24   50     199  18  
##  6 ordii           12   50      76   9  
##  7 ochrognathus    15   49     105  37  
##  8 merriami        10   44      66   8  
##  9 leucogaster     10   32      56   9  
## 10 baileyi         12   31      55   9  
## # ... with 12 more rows
```
…
6. Add another layer to your answer from #4 using `geom_point` to get an idea of how many measurements were taken for each species.


```r
plot_types_species <- deserts %>% 
  group_by(species) %>% 
  count(plot_type)

plot_types_species
```

```
## # A tibble: 156 x 3
## # Groups:   species [40]
##    species   plot_type                     n
##    <chr>     <chr>                     <int>
##  1 albigula  Control                     610
##  2 albigula  Long-term Krat Exclosure    166
##  3 albigula  Rodent Exclosure            147
##  4 albigula  Short-term Krat Exclosure   252
##  5 albigula  Spectab exclosure            77
##  6 audubonii Control                      29
##  7 audubonii Long-term Krat Exclosure     17
##  8 audubonii Rodent Exclosure             24
##  9 audubonii Short-term Krat Exclosure     2
## 10 audubonii Spectab exclosure             3
## # ... with 146 more rows
```


7. [Dipodomys merriami](https://en.wikipedia.org/wiki/Merriam's_kangaroo_rat) is the most frequently sampled animal in the study. How have the number of observations of this species changed over the years included in the study?

```r
mkr <- deserts %>% 
  filter(genus == "Dipodomys", species == "merriami") %>% 
  count(year)

mkr
```

```
## # A tibble: 26 x 2
##     year     n
##    <dbl> <int>
##  1  1977   264
##  2  1978   389
##  3  1979   209
##  4  1980   493
##  5  1981   559
##  6  1982   609
##  7  1983   528
##  8  1984   396
##  9  1985   667
## 10  1986   406
## # ... with 16 more rows
```
…
