…
2. Notice that we have some neutral superheros! Who are they?

```r
superhero_info %>% 
  filter(alignment == "neutral") %>% 
  select(name)
```

```
## # A tibble: 24 x 1
##    name        
##    <chr>       
##  1 Bizarro     
##  2 Black Flash 
##  3 Captain Cold
##  4 Copycat     
##  5 Deadpool    
##  6 Deathstroke 
##  7 Etrigan     
##  8 Galactus    
##  9 Gladiator   
## 10 Indigo      
## # ... with 14 more rows
```

## `superhero_info`
3. Let's say we are only interested in the variables name, alignment, and "race". How would you isolate these variables from `superhero_info`?

```r
superhero_info %>% 
  select(name, alignment, race)
```

```
## # A tibble: 734 x 3
##    name          alignment race             
##    <chr>         <chr>     <chr>            
##  1 A-Bomb        good      Human            
##  2 Abe Sapien    good      Icthyo Sapien    
##  3 Abin Sur      good      Ungaran          
##  4 Abomination   bad       Human / Radiation
##  5 Abraxas       bad       Cosmic Entity    
##  6 Absorbing Man bad       Human            
##  7 Adam Monroe   good      <NA>             
##  8 Adam Strange  good      Human            
##  9 Agent 13      good      <NA>             
## 10 Agent Bob     good      Human            
## # ... with 724 more rows
```

## Not Human
4. List all of the superheros that are not human.

```r
superhero_info %>% 
  select(name, alignment, race) %>% 
  filter(race !="Human")
```

```
## # A tibble: 222 x 3
##    name         alignment race             
##    <chr>        <chr>     <chr>            
##  1 Abe Sapien   good      Icthyo Sapien    
##  2 Abin Sur     good      Ungaran          
##  3 Abomination  bad       Human / Radiation
##  4 Abraxas      bad       Cosmic Entity    
##  5 Ajax         bad       Cyborg           
##  6 Alien        bad       Xenomorph XX121  
##  7 Amazo        bad       Android          
##  8 Angel        good      Vampire          
##  9 Angel Dust   good      Mutant           
## 10 Anti-Monitor bad       God / Eternal    
## # ... with 212 more rows
```
…
```
## [1] TRUE
```

10. Let's explore who the really "big" superheros are. In the `superhero_info` data, which have a height over 200 or weight greater than or equal to 450?

```r
superhero_info %>% 
  filter(height > 200 | weight >= 450) %>% 
  select(name, height, weight)
```

```
## # A tibble: 60 x 3
##    name          height weight
##    <chr>          <dbl>  <dbl>
##  1 A-Bomb           203    441
##  2 Abomination      203    441
##  3 Alien            244    169
##  4 Amazo            257    173
##  5 Ant-Man          211    122
##  6 Anti-Venom       229    358
##  7 Apocalypse       213    135
##  8 Bane             203    180
##  9 Beta Ray Bill    201    216
## 10 Bloodaxe         218    495
## # ... with 50 more rows
```
…
## Height to Weight Ratio
13. It's easy to be strong when you are heavy and tall, but who is heavy and short? Which superheros have the highest height to weight ratio?

```r
# heavy and short
superhero_info %>% 
  mutate(height_to_weight = height / weight) %>% 
  select(name, height, weight, height_to_weight) %>% 
  arrange(height_to_weight)
```

```
## # A tibble: 734 x 4
##    name        height weight height_to_weight
##    <chr>        <dbl>  <dbl>            <dbl>
##  1 Giganta       62.5    630           0.0992
##  2 Utgard-Loki   15.2     58           0.262 
##  3 Darkseid     267      817           0.327 
##  4 Juggernaut   287      855           0.336 
##  5 Red Hulk     213      630           0.338 
##  6 Sasquatch    305      900           0.339 
##  7 Hulk         244      630           0.387 
##  8 Bloodaxe     218      495           0.440 
##  9 Thanos       201      443           0.454 
## 10 A-Bomb       203      441           0.460 
## # ... with 724 more rows
```


```r
# highest height to weight ratio
superhero_info %>% 
  mutate(height_to_weight = height / weight) %>% 
  select(name, height, weight, height_to_weight) %>% 
  arrange(desc(height_to_weight))
```

```
## # A tibble: 734 x 4
##    name            height weight height_to_weight
##    <chr>            <dbl>  <dbl>            <dbl>
##  1 Groot              701      4           175.  
##  2 Galactus           876     16            54.8 
##  3 Fin Fang Foom      975     18            54.2 
##  4 Longshot           188     36             5.22
##  5 Jack-Jack           71     14             5.07
##  6 Rocket Raccoon     122     25             4.88
##  7 Dash               122     27             4.52
##  8 Howard the Duck     79     18             4.39
##  9 Swarm              196     47             4.17
## 10 Yoda                66     17             3.88
## # ... with 724 more rows
```
…
