…
fisheries_tidy$catch <- as.numeric(fisheries_tidy$catch)
```

3. How many countries are represented in the data? Provide a count and list their names.

203 countries are represented in the data. A list of the countries represented and the number of observations associated with each country is reported below.


```r
fisheries_tidy %>% 
  count(country)
```

```
## # A tibble: 203 x 2
##    country                 n
##    <fct>               <int>
##  1 Albania               934
##  2 Algeria              1561
##  3 American Samoa        556
##  4 Angola               2119
##  5 Anguilla              129
##  6 Antigua and Barbuda   356
##  7 Argentina            3403
##  8 Aruba                 172
##  9 Australia            8183
## 10 Bahamas               423
## # ... with 193 more rows
```
…
6. Which country had the largest overall catch in the year 2000?

China had the largest overall catch of a single species in the year 2000.

```r
fisheries_tidy2 %>% 
  group_by(country) %>% 
  filter(!is.na(catch), year == "2000") %>% 
  summarize(largest_overall_catch = max(catch)) %>% 
  arrange(desc(largest_overall_catch))
```

```
## # A tibble: 187 x 2
##    country                  largest_overall_catch
##    <fct>                                    <dbl>
##  1 China                                     9068
##  2 Peru                                      5717
##  3 Russian Federation                        5065
##  4 Viet Nam                                  4945
##  5 Chile                                     4299
##  6 United States of America                  2438
##  7 Philippines                                999
##  8 Japan                                      988
##  9 Bangladesh                                 977
## 10 Senegal                                    970
## # ... with 177 more rows
```
China also had the largest catch across all species in the year 2000.

```r
fisheries_tidy2 %>% 
  group_by(country) %>% 
  filter(!is.na(catch), year == "2000") %>% 
  summarize(largest_overall_catch = sum(catch)) %>% 
  arrange(desc(largest_overall_catch))
```

```
## # A tibble: 187 x 2
##    country                  largest_overall_catch
##    <fct>                                    <dbl>
##  1 China                                    25899
##  2 Russian Federation                       12181
##  3 United States of America                 11762
##  4 Japan                                     8510
##  5 Indonesia                                 8341
##  6 Peru                                      7443
##  7 Chile                                     6906
##  8 India                                     6351
##  9 Thailand                                  6243
## 10 Korea, Republic of                        6124
## # ... with 177 more rows
```
…
Morocco caught the most sardines between the years 1990 - 2000.

```r
fisheries_tidy2 %>% 
  group_by(country) %>% 
  filter(!is.na(catch), 
         between(year, "1990", "2000"), 
         asfis_species_name == "Sardina pilchardus") %>% 
  summarize(sardines_caught = sum(catch)) %>% 
  arrange(desc(sardines_caught))
```

```
## # A tibble: 37 x 2
##    country               sardines_caught
##    <fct>                           <dbl>
##  1 Morocco                          7470
##  2 Spain                            3507
##  3 Russian Federation               1639
##  4 Ukraine                          1030
##  5 France                            966
##  6 Portugal                          818
##  7 Greece                            528
##  8 Italy                             507
##  9 Serbia and Montenegro             478
## 10 Denmark                           477
## # ... with 27 more rows
```
…
_Theragra chalcogramma_ had the highest catch total between 2008 - 2012.

```r
fisheries_tidy2 %>% 
  group_by(asfis_species_name) %>% 
  filter(!is.na(catch), 
         between(year, "2008", "2012"), 
         asfis_species_name != "Osteichthyes") %>% 
  summarize(catch_total = sum(catch)) %>% 
  arrange(desc(catch_total))
```

```
## # A tibble: 1,352 x 2
##    asfis_species_name    catch_total
##    <chr>                       <dbl>
##  1 Theragra chalcogramma       41075
##  2 Engraulis ringens           35523
##  3 Katsuwonus pelamis          32153
##  4 Trichiurus lepturus         30400
##  5 Clupea harengus             28527
##  6 Thunnus albacares           20119
##  7 Scomber japonicus           14723
##  8 Gadus morhua                13253
##  9 Thunnus alalunga            12019
## 10 Natantia                    11984
## # ... with 1,342 more rows
```
…
