…
# Create a list to contain all data sets.
df_list <- list(pop_tidy, income_tidy, life_exp_tidy)

# Apply countries function to list of data frames.
df_list %>% 
  lapply(countries)
```

```
## [[1]]
## # A tibble: 195 x 1
##    country            
##    <chr>              
##  1 Afghanistan        
##  2 Albania            
##  3 Algeria            
##  4 Andorra            
##  5 Angola             
##  6 Antigua and Barbuda
##  7 Argentina          
##  8 Armenia            
##  9 Australia          
## 10 Austria            
## # ... with 185 more rows
## 
## [[2]]
## # A tibble: 193 x 1
##    country            
##    <chr>              
##  1 Afghanistan        
##  2 Albania            
##  3 Algeria            
##  4 Andorra            
##  5 Angola             
##  6 Antigua and Barbuda
##  7 Argentina          
##  8 Armenia            
##  9 Australia          
## 10 Austria            
## # ... with 183 more rows
## 
## [[3]]
## # A tibble: 187 x 1
##    country            
##    <chr>              
##  1 Afghanistan        
##  2 Albania            
##  3 Algeria            
##  4 Andorra            
##  5 Angola             
##  6 Antigua and Barbuda
##  7 Argentina          
##  8 Armenia            
##  9 Australia          
## 10 Austria            
## # ... with 177 more rows
```
…
avg_life_exp <- life_exp_tidy %>% 
  mutate(year = str_replace(year, "x", ""),
         year = as.numeric(year)) %>%
  filter(year %in% years, 
         !is.na(life_exp)) %>% 
  mutate(year = factor(year)) %>% 
  group_by(country) %>% 
  summarize(avg_life_exp = mean(life_exp)) %>% 
  arrange(desc(avg_life_exp))
  
avg_life_exp
```

```
## # A tibble: 187 x 2
##    country     avg_life_exp
##    <chr>              <dbl>
##  1 Andorra             79.8
##  2 Sweden              73.5
##  3 Norway              73.2
##  4 Netherlands         73.0
##  5 Dominica            73.0
##  6 Iceland             72.9
##  7 Australia           72.7
##  8 Switzerland         72.7
##  9 Denmark             71.9
## 10 Canada              71.8
## # ... with 177 more rows
```
…
```r
gapminder_join <- inner_join(life_expectancy_100, population_100, by= c("country", "year"))
gapminder_join <- inner_join(gapminder_join, income_100, by= c("country", "year"))

gapminder_join <- gapminder_join %>% 
  as_tibble()

gapminder_join
```

```
## # A tibble: 18,887 x 5
##    country     year  life_exp total_pop income
##    <chr>       <fct>    <dbl>     <dbl>  <dbl>
##  1 Afghanistan 1920      30.6  10600000   1490
##  2 Afghanistan 1921      30.7  10500000   1520
##  3 Afghanistan 1922      30.8  10300000   1550
##  4 Afghanistan 1923      30.8   9710000   1570
##  5 Afghanistan 1924      30.9   9200000   1600
##  6 Afghanistan 1925      31     8720000   1630
##  7 Afghanistan 1926      31     8260000   1650
##  8 Afghanistan 1927      31.1   7830000   1680
##  9 Afghanistan 1928      31.1   7420000   1710
## 10 Afghanistan 1929      31.2   7100000   1740
## # ... with 18,877 more rows
```
…
